[api-updater (non-obsolete-error-filter)] 4/11/2022 6:11:56 PM : Starting D:/Program Files/Unity/2020.3.26f1/Editor/Data/Tools/ScriptUpdater/APIUpdater.NonObsoleteApiUpdaterDetector.exe
[api-updater (non-obsolete-error-filter)] 
----------------------------------
jit/startup time      : 1260.5422ms
moved types parse time: 129ms
candidates parse time : 2ms
C# parse time         : 1232ms
candidates check time : 106ms
console write time    : 1ms

[api-updater (non-obsolete-error-filter)] 4/13/2022 5:20:48 PM : Starting D:/Program Files/Unity/2020.3.26f1/Editor/Data/Tools/ScriptUpdater/APIUpdater.NonObsoleteApiUpdaterDetector.exe
[api-updater (non-obsolete-error-filter)] 
----------------------------------
jit/startup time      : 1526.0869ms
moved types parse time: 108ms
candidates parse time : 2ms
C# parse time         : 1212ms
candidates check time : 93ms
console write time    : 1ms

[api-updater (non-obsolete-error-filter)] 4/13/2022 5:47:31 PM : Starting D:/Program Files/Unity/2020.3.26f1/Editor/Data/Tools/ScriptUpdater/APIUpdater.NonObsoleteApiUpdaterDetector.exe
[api-updater (non-obsolete-error-filter)] 
----------------------------------
jit/startup time      : 106.9356ms
moved types parse time: 71ms
candidates parse time : 1ms
C# parse time         : 262ms
candidates check time : 76ms
console write time    : 0ms

[api-updater (non-obsolete-error-filter)] 4/13/2022 5:49:32 PM : Starting D:/Program Files/Unity/2020.3.26f1/Editor/Data/Tools/ScriptUpdater/APIUpdater.NonObsoleteApiUpdaterDetector.exe
[api-updater (non-obsolete-error-filter)] 
----------------------------------
jit/startup time      : 103.8404ms
moved types parse time: 75ms
candidates parse time : 1ms
C# parse time         : 257ms
candidates check time : 63ms
console write time    : 0ms

[api-updater (non-obsolete-error-filter)] 4/13/2022 5:49:35 PM : Starting D:/Program Files/Unity/2020.3.26f1/Editor/Data/Tools/ScriptUpdater/APIUpdater.NonObsoleteApiUpdaterDetector.exe
[api-updater (non-obsolete-error-filter)] 
----------------------------------
jit/startup time      : 95.9449ms
moved types parse time: 73ms
candidates parse time : 1ms
C# parse time         : 340ms
candidates check time : 73ms
console write time    : 0ms

[api-updater (non-obsolete-error-filter)] 4/13/2022 5:49:59 PM : Starting D:/Program Files/Unity/2020.3.26f1/Editor/Data/Tools/ScriptUpdater/APIUpdater.NonObsoleteApiUpdaterDetector.exe
[api-updater (non-obsolete-error-filter)] 
----------------------------------
jit/startup time      : 93.9622ms
moved types parse time: 74ms
candidates parse time : 1ms
C# parse time         : 245ms
candidates check time : 72ms
console write time    : 0ms

[api-updater (non-obsolete-error-filter)] 4/13/2022 5:50:04 PM : Starting D:/Program Files/Unity/2020.3.26f1/Editor/Data/Tools/ScriptUpdater/APIUpdater.NonObsoleteApiUpdaterDetector.exe
[api-updater (non-obsolete-error-filter)] 
----------------------------------
jit/startup time      : 108.9369ms
moved types parse time: 80ms
candidates parse time : 1ms
C# parse time         : 269ms
candidates check time : 93ms
console write time    : 0ms

[api-updater (non-obsolete-error-filter)] 4/13/2022 5:50:24 PM : Starting D:/Program Files/Unity/2020.3.26f1/Editor/Data/Tools/ScriptUpdater/APIUpdater.NonObsoleteApiUpdaterDetector.exe
[api-updater (non-obsolete-error-filter)] 
----------------------------------
jit/startup time      : 93.9626ms
moved types parse time: 76ms
candidates parse time : 1ms
C# parse time         : 238ms
candidates check time : 69ms
console write time    : 0ms

[api-updater (non-obsolete-error-filter)] 4/13/2022 5:50:48 PM : Starting D:/Program Files/Unity/2020.3.26f1/Editor/Data/Tools/ScriptUpdater/APIUpdater.NonObsoleteApiUpdaterDetector.exe
[api-updater (non-obsolete-error-filter)] 
----------------------------------
jit/startup time      : 107.9378ms
moved types parse time: 81ms
candidates parse time : 2ms
C# parse time         : 251ms
candidates check time : 69ms
console write time    : 0ms

[api-updater (non-obsolete-error-filter)] 4/13/2022 5:52:25 PM : Starting D:/Program Files/Unity/2020.3.26f1/Editor/Data/Tools/ScriptUpdater/APIUpdater.NonObsoleteApiUpdaterDetector.exe
[api-updater (non-obsolete-error-filter)] 
----------------------------------
jit/startup time      : 110.936ms
moved types parse time: 102ms
candidates parse time : 2ms
C# parse time         : 270ms
candidates check time : 69ms
console write time    : 0ms

[api-updater (non-obsolete-error-filter)] 4/14/2022 5:13:00 AM : Starting D:/Program Files/Unity/2020.3.26f1/Editor/Data/Tools/ScriptUpdater/APIUpdater.NonObsoleteApiUpdaterDetector.exe
[api-updater (non-obsolete-error-filter)] 
----------------------------------
jit/startup time      : 1062.4247ms
moved types parse time: 73ms
candidates parse time : 1ms
C# parse time         : 799ms
candidates check time : 60ms
console write time    : 0ms

[api-updater (non-obsolete-error-filter)] 4/14/2022 6:59:58 AM : Starting D:/Program Files/Unity/2020.3.26f1/Editor/Data/Tools/ScriptUpdater/APIUpdater.NonObsoleteApiUpdaterDetector.exe
[api-updater (non-obsolete-error-filter)] 
----------------------------------
jit/startup time      : 108.5196ms
moved types parse time: 72ms
candidates parse time : 2ms
C# parse time         : 325ms
candidates check time : 67ms
console write time    : 0ms

[api-updater (non-obsolete-error-filter)] 4/14/2022 7:01:52 AM : Starting D:/Program Files/Unity/2020.3.26f1/Editor/Data/Tools/ScriptUpdater/APIUpdater.NonObsoleteApiUpdaterDetector.exe
[api-updater (non-obsolete-error-filter)] 
----------------------------------
jit/startup time      : 140.1053ms
moved types parse time: 104ms
candidates parse time : 2ms
C# parse time         : 391ms
candidates check time : 95ms
console write time    : 1ms

[api-updater (non-obsolete-error-filter)] 4/14/2022 7:10:44 AM : Starting D:/Program Files/Unity/2020.3.26f1/Editor/Data/Tools/ScriptUpdater/APIUpdater.NonObsoleteApiUpdaterDetector.exe
[api-updater (non-obsolete-error-filter)] 
----------------------------------
jit/startup time      : 138.2014ms
moved types parse time: 74ms
candidates parse time : 2ms
C# parse time         : 273ms
candidates check time : 63ms
console write time    : 0ms

[api-updater (non-obsolete-error-filter)] 4/14/2022 3:01:25 PM : Starting D:/Program Files/Unity/2020.3.26f1/Editor/Data/Tools/ScriptUpdater/APIUpdater.NonObsoleteApiUpdaterDetector.exe
[api-updater (non-obsolete-error-filter)] 
----------------------------------
jit/startup time      : 1061.0992ms
moved types parse time: 73ms
candidates parse time : 1ms
C# parse time         : 893ms
candidates check time : 59ms
console write time    : 0ms

[api-updater (non-obsolete-error-filter)] 4/14/2022 4:08:01 PM : Starting D:/Program Files/Unity/2020.3.26f1/Editor/Data/Tools/ScriptUpdater/APIUpdater.NonObsoleteApiUpdaterDetector.exe
[api-updater (non-obsolete-error-filter)] 
----------------------------------
jit/startup time      : 105.9391ms
moved types parse time: 84ms
candidates parse time : 1ms
C# parse time         : 267ms
candidates check time : 43ms
console write time    : 0ms

[api-updater (non-obsolete-error-filter)] 4/14/2022 4:08:43 PM : Starting D:/Program Files/Unity/2020.3.26f1/Editor/Data/Tools/ScriptUpdater/APIUpdater.NonObsoleteApiUpdaterDetector.exe
[api-updater (non-obsolete-error-filter)] 
----------------------------------
jit/startup time      : 125.9256ms
moved types parse time: 96ms
candidates parse time : 2ms
C# parse time         : 291ms
candidates check time : 42ms
console write time    : 0ms

[api-updater (non-obsolete-error-filter)] 4/14/2022 4:46:19 PM : Starting D:/Program Files/Unity/2020.3.26f1/Editor/Data/Tools/ScriptUpdater/APIUpdater.NonObsoleteApiUpdaterDetector.exe
[api-updater (non-obsolete-error-filter)] 
----------------------------------
jit/startup time      : 93.9826ms
moved types parse time: 73ms
candidates parse time : 1ms
C# parse time         : 272ms
candidates check time : 68ms
console write time    : 0ms

[api-updater (non-obsolete-error-filter)] 4/14/2022 4:46:37 PM : Starting D:/Program Files/Unity/2020.3.26f1/Editor/Data/Tools/ScriptUpdater/APIUpdater.NonObsoleteApiUpdaterDetector.exe
[api-updater (non-obsolete-error-filter)] 
----------------------------------
jit/startup time      : 98.9459ms
moved types parse time: 70ms
candidates parse time : 1ms
C# parse time         : 324ms
candidates check time : 71ms
console write time    : 0ms

[api-updater (non-obsolete-error-filter)] 4/14/2022 4:53:52 PM : Starting D:/Program Files/Unity/2020.3.26f1/Editor/Data/Tools/ScriptUpdater/APIUpdater.NonObsoleteApiUpdaterDetector.exe
[api-updater (non-obsolete-error-filter)] 
----------------------------------
jit/startup time      : 104.9374ms
moved types parse time: 71ms
candidates parse time : 1ms
C# parse time         : 289ms
candidates check time : 67ms
console write time    : 0ms

[api-updater (non-obsolete-error-filter)] 4/14/2022 5:14:48 PM : Starting D:/Program Files/Unity/2020.3.26f1/Editor/Data/Tools/ScriptUpdater/APIUpdater.NonObsoleteApiUpdaterDetector.exe
[api-updater (non-obsolete-error-filter)] 
----------------------------------
jit/startup time      : 128.9266ms
moved types parse time: 73ms
candidates parse time : 1ms
C# parse time         : 274ms
candidates check time : 68ms
console write time    : 0ms

[api-updater (non-obsolete-error-filter)] 4/16/2022 3:04:03 PM : Starting D:/Program Files/Unity/2020.3.26f1/Editor/Data/Tools/ScriptUpdater/APIUpdater.NonObsoleteApiUpdaterDetector.exe
[api-updater (non-obsolete-error-filter)] 
----------------------------------
jit/startup time      : 1127.9571ms
moved types parse time: 75ms
candidates parse time : 1ms
C# parse time         : 838ms
candidates check time : 44ms
console write time    : 1ms

[api-updater (non-obsolete-error-filter)] 4/16/2022 3:05:21 PM : Starting D:/Program Files/Unity/2020.3.26f1/Editor/Data/Tools/ScriptUpdater/APIUpdater.NonObsoleteApiUpdaterDetector.exe
[api-updater (non-obsolete-error-filter)] 
----------------------------------
jit/startup time      : 109.3679ms
moved types parse time: 73ms
candidates parse time : 1ms
C# parse time         : 241ms
candidates check time : 41ms
console write time    : 0ms

[api-updater (non-obsolete-error-filter)] 4/16/2022 3:13:54 PM : Starting D:/Program Files/Unity/2020.3.26f1/Editor/Data/Tools/ScriptUpdater/APIUpdater.NonObsoleteApiUpdaterDetector.exe
[api-updater (non-obsolete-error-filter)] 
----------------------------------
jit/startup time      : 140.1637ms
moved types parse time: 71ms
candidates parse time : 1ms
C# parse time         : 262ms
candidates check time : 65ms
console write time    : 0ms

[api-updater (non-obsolete-error-filter)] 4/16/2022 4:04:13 PM : Starting D:/Program Files/Unity/2020.3.26f1/Editor/Data/Tools/ScriptUpdater/APIUpdater.NonObsoleteApiUpdaterDetector.exe
[api-updater (non-obsolete-error-filter)] 
----------------------------------
jit/startup time      : 114.4567ms
moved types parse time: 92ms
candidates parse time : 2ms
C# parse time         : 356ms
candidates check time : 69ms
console write time    : 0ms

[api-updater (non-obsolete-error-filter)] 4/16/2022 7:05:26 PM : Starting D:/Program Files/Unity/2020.3.26f1/Editor/Data/Tools/ScriptUpdater/APIUpdater.NonObsoleteApiUpdaterDetector.exe
[api-updater (non-obsolete-error-filter)] 
----------------------------------
jit/startup time      : 109.9369ms
moved types parse time: 77ms
candidates parse time : 1ms
C# parse time         : 279ms
candidates check time : 75ms
console write time    : 0ms

[api-updater (non-obsolete-error-filter)] 4/16/2022 7:27:12 PM : Starting D:/Program Files/Unity/2020.3.26f1/Editor/Data/Tools/ScriptUpdater/APIUpdater.NonObsoleteApiUpdaterDetector.exe
[api-updater (non-obsolete-error-filter)] 
----------------------------------
jit/startup time      : 117.9592ms
moved types parse time: 71ms
candidates parse time : 1ms
C# parse time         : 264ms
candidates check time : 59ms
console write time    : 0ms

[api-updater (non-obsolete-error-filter)] 4/17/2022 6:05:47 PM : Starting D:/Program Files/Unity/2020.3.26f1/Editor/Data/Tools/ScriptUpdater/APIUpdater.NonObsoleteApiUpdaterDetector.exe
[api-updater (non-obsolete-error-filter)] 
----------------------------------
jit/startup time      : 1099.4012ms
moved types parse time: 77ms
candidates parse time : 1ms
C# parse time         : 909ms
candidates check time : 78ms
console write time    : 1ms

