%YAML 1.1
%TAG !u! tag:unity3d.com,2011:
--- !u!114 &11400000
MonoBehaviour:
  m_ObjectHideFlags: 0
  m_CorrespondingSourceObject: {fileID: 0}
  m_PrefabInstance: {fileID: 0}
  m_PrefabAsset: {fileID: 0}
  m_GameObject: {fileID: 0}
  m_Enabled: 1
  m_EditorHideFlags: 0
  m_Script: {fileID: 11500000, guid: 54d21f6ece3b46479f0c328f8c6007e0, type: 3}
  m_Name: Dark to Light Green - Vertical
  m_EditorClassIdentifier: 
  colorMode: 3
  topLeft: {r: 1, g: 1, b: 1, a: 1}
  topRight: {r: 1, g: 0.5372136, b: 0.514151, a: 1}
  bottomLeft: {r: 0.5, g: 0.16197681, b: 0.125, a: 1}
  bottomRight: {r: 0.4792571, g: 0.2235294, b: 0.50980395, a: 1}
